{
	"Global 1.1.21": {
		"size": 8771076,
		"patches": [
			{
				"desc": "Self-check patch (Check it or you will get \"unexpected error\"!)",
				"type": "raw",
				"patch": [
					{"offset": "0x489BA4", "bytes":"01 20 70 47"},
					{"offset": "0x489F34", "bytes":"01 20 70 47"}
				]
			},
			{
				"desc": "Zel",
				"type": "int",
				"patch": [
					{"offset": "0x14DB6E", "min": 1, "max": 60000, "default": 10000}
				]
			},
			{
				"desc": "Karma",
				"type": "int",
				"patch": [
					{"offset": "0x14DB76", "min": 1, "max": 60000, "default": 10000}
				]
			},
			{
				"desc": "Honor",
				"type": "int",
				"patch": [
					{"offset": "0x22969E", "min": 1, "max": 255, "default": 100}
				]
			},
			{
				"desc": "No key for parade",
				"type": "raw",
				"patch": [
					{"offset": "0x1DA91E", "bytes":"01 20 70 47"}
				]
			},
			{
				"desc": "No level limit for evolve",
				"type": "raw",
				"patch": [
					{"offset": "0x425B52", "bytes":"A4"},
					{"offset": "0x426A88", "bytes":"9B"}
				]
			},
			{
				"desc": "1 energy cost - if selected do not select 100% capture",
				"type": "raw",
				"patch": [
					{"offset": "0x229A5A", "bytes":"01 20 70 47"},
					{"offset": "0x229A66", "bytes":"FF 20 70 47"}
				]
			},
			{
                "desc": "100% capture - if selected do not select 1 energy",
                "type": "raw",
                "patch": [
                    {"offset": "0x229A5A", "bytes":"05 20 70 47"},
                    {"offset": "0x229A66", "bytes":"CC 20 70 47"}
                ]
            },
			{
				"desc": "Instant BB",
				"type": "raw",
				"patch": [
					{"offset": "0x165052", "bytes":"64 20 70 47"}
				]
			},
			{
				"desc": "Fill up battle items to 10",
				"type": "raw",
				"patch": [
					{"offset": "0x1EC966", "bytes":"0A 20 70 47"}
				]
			},
			{
                "desc": "49 items recieved after quest",
                "type": "raw",
                "patch": [
                    {"offset": "0x14CCF2", "bytes":"31 20"}
                ]
            },
			{
				"desc": "Monster ATK",
				"type": "int",
				"patch": [
					{"offset": "0x1681FC", "min": 1, "max": 250, "default": 1}
				]
			},
			{
				"desc": "Monster DEF",
				"type": "int",
				"patch": [
					{"offset": "0x1681F4", "min": 1, "max": 250, "default": 1}
				]
			},
			{
				"desc": "Monster MHP",
				"type": "int",
				"patch": [
					{"offset": "0x168204", "min": 1, "max": 250, "default": 100}
				]
			},
			{
				"desc": "Total unit costs",
				"type": "int",
				"patch": [
					{"offset": "0x1F4E34", "min": 1, "max": 255, "default": 255}
				]
			},
			{
				"desc": "Item slots count",
				"type": "int",
				"patch": [
					{"offset": "0x1F4FDE", "min": 1, "max": 60000, "default": 1000}
				]
			},
			{
				"desc": "Arena opponent's ABP",
				"type": "raw",
				"patch": [
					{"offset": "0x27386C", "bytes":"01 23"}
				]
			}
		]
	}
}
